testbench/tb_decoder.vcd
$date
	Thu Nov 20 16:29:53 2025
$end
$version
	Icarus Verilog
$end
$timescale
	1ps
$end
$scope module tb_decoder $end
$var wire 1 ! sync_lost $end
$var wire 1 " frame_error $end
$var wire 1 # data_valid $end
$var wire 32 $ data_out [31:0] $end
$var wire 1 % cdr_locked $end
$var reg 1 & clk_link $end
$var reg 1 ' clk_sys $end
$var reg 1 ( manch_in $end
$var reg 1 ) rst_n $end
$scope function calc_crc8 $end
$var reg 8 * crc [7:0] $end
$var reg 48 + data [47:0] $end
$var integer 32 , i [31:0] $end
$upscope $end
$scope module u_dut $end
$var wire 1 % cdr_locked $end
$var wire 1 & clk_link $end
$var wire 1 ' clk_sys $end
$var wire 32 - fifo_din [31:0] $end
$var wire 1 . fifo_wr_en $end
$var wire 1 " frame_error $end
$var wire 1 ( manch_in $end
$var wire 1 ) rst_n $end
$var wire 1 ! sync_lost $end
$var wire 1 / sync_lost_int $end
$var wire 1 0 frame_error_int $end
$var wire 1 1 frame_data_valid $end
$var wire 32 2 frame_data [31:0] $end
$var wire 1 3 fifo_rd_en $end
$var wire 1 4 fifo_full $end
$var wire 1 5 fifo_empty $end
$var wire 1 # data_valid $end
$var wire 32 6 data_out [31:0] $end
$var wire 1 7 cdr_locked_int $end
$var wire 1 8 cdr_bit_valid $end
$var wire 1 9 cdr_bit $end
$scope module u_async_fifo $end
$var wire 1 ' clk_rd $end
$var wire 1 ' clk_wr $end
$var wire 32 : din [31:0] $end
$var wire 32 ; dout [31:0] $end
$var wire 1 3 rd_en $end
$var wire 5 < rd_ptr_gray_next [4:0] $end
$var wire 1 ) rst_rd_n $end
$var wire 1 ) rst_wr_n $end
$var wire 1 # valid $end
$var wire 1 . wr_en $end
$var wire 5 = wr_ptr_gray_next [4:0] $end
$var wire 5 > wr_ptr_bin_next [4:0] $end
$var wire 5 ? used_words_wr [4:0] $end
$var wire 5 @ rd_ptr_bin_next [4:0] $end
$var wire 1 4 full $end
$var wire 1 5 empty $end
$var wire 1 A almost_full $end
$var parameter 32 B ADDR_WIDTH $end
$var parameter 37 C ALMOST_FULL_THRESHOLD $end
$var parameter 32 D DATA_WIDTH $end
$var parameter 36 E FIFO_DEPTH $end
$var parameter 33 F PTR_WIDTH $end
$var reg 32 G rd_data_reg [31:0] $end
$var reg 5 H rd_gray_wr1 [4:0] $end
$var reg 5 I rd_gray_wr2 [4:0] $end
$var reg 5 J rd_ptr_bin [4:0] $end
$var reg 5 K rd_ptr_bin_wr [4:0] $end
$var reg 5 L rd_ptr_gray [4:0] $end
$var reg 1 M rd_valid_reg $end
$var reg 5 N wr_gray_rd1 [4:0] $end
$var reg 5 O wr_gray_rd2 [4:0] $end
$var reg 5 P wr_ptr_bin [4:0] $end
$var reg 5 Q wr_ptr_gray [4:0] $end
$var integer 32 R i [31:0] $end
$upscope $end
$scope module u_cdr $end
$var wire 1 8 bit_valid $end
$var wire 1 & clk_link $end
$var wire 1 ( manch_in $end
$var wire 1 ) rst_n $end
$var wire 1 S transition $end
$var wire 1 7 locked $end
$var wire 1 9 bit_out $end
$var wire 1 T at_bit_center $end
$var parameter 2 U STATE_LOCKED $end
$var parameter 2 V STATE_LOCKING $end
$var parameter 2 W STATE_UNLOCKED $end
$var reg 2 X lock_state [1:0] $end
$var reg 8 Y lock_timer [7:0] $end
$var reg 6 Z phase_quality [5:0] $end
$var reg 2 [ phase_sel [1:0] $end
$var reg 2 \ sample_cnt [1:0] $end
$var reg 4 ] sample_shift [3:0] $end
$upscope $end
$scope module u_frame_sync $end
$var wire 1 9 bit_in $end
$var wire 1 8 bit_valid $end
$var wire 1 ' clk_sys $end
$var wire 1 ) rst_n $end
$var wire 8 ^ calc_crc [7:0] $end
$var parameter 2 _ SEARCH $end
$var parameter 2 ` SYNC $end
$var parameter 8 a SYNC_PATTERN $end
$var parameter 2 b VERIFY $end
$var reg 6 c bit_cnt [5:0] $end
$var reg 32 d data_out [31:0] $end
$var reg 1 1 data_valid $end
$var reg 4 e error_cnt [3:0] $end
$var reg 8 f frame_cnt [7:0] $end
$var reg 1 0 frame_error $end
$var reg 56 g shift_reg [55:0] $end
$var reg 2 h state [1:0] $end
$var reg 1 / sync_lost $end
$scope function crc8_48bit $end
$var reg 8 i crc [7:0] $end
$var reg 48 j data [47:0] $end
$var integer 32 k i [31:0] $end
$upscope $end
$upscope $end
$upscope $end
$scope task send_frame_bits $end
$var reg 8 l cnt [7:0] $end
$var reg 8 m crc [7:0] $end
$var reg 32 n data [31:0] $end
$var reg 56 o frame [55:0] $end
$var integer 32 p i [31:0] $end
$upscope $end
$scope task send_manchester_bit $end
$var reg 1 q b $end
$upscope $end
$scope task send_manchester_frame $end
$var reg 1 r bit_val $end
$var reg 8 s cnt [7:0] $end
$var reg 8 t crc [7:0] $end
$var reg 32 u data [31:0] $end
$var reg 56 v frame [55:0] $end
$var integer 32 w i [31:0] $end
$upscope $end
$upscope $end
$enddefinitions $end
$comment Show the parameter values. $end
$dumpall
b10 b
b10101010 a
b1 `
b0 _
b0 W
b1 V
b10 U
b101 F
b10000 E
b100000 D
b1110 C
b100 B
$end
#0
$dumpvars
bx w
bx v
bx u
bx t
bx s
xr
xq
bx p
bx o
bx n
bx m
bx l
b11111111111111111111111111111111 k
bx j
b0 i
b0 h
bx g
b0 f
b0 e
bx d
b0 c
b0 ^
bx ]
bx \
bx [
bx Z
bx Y
bx X
xT
xS
b11111111111111111111111111111111 R
b0 Q
b0 P
b0 O
b0 N
0M
b0 L
b0 K
b0 J
b0 I
b0 H
b0 G
0A
b0 @
b0 ?
b0 >
b0 =
b0 <
b0 ;
bx :
x9
x8
x7
b0 6
15
04
03
bx 2
01
00
0/
0.
bx -
bx ,
bx +
bx *
0)
0(
0'
0&
x%
b0 $
0#
0"
0!
$end
#2500
08
bx0 ]
b0 Z
b1 [
0T
b0 \
b0 Y
0%
07
b0 X
1&
#5000
0&
1'
#7500
0S
09
bx00 ]
1&
#10000
0&
0'
#12500
bx000 ]
1&
#15000
0&
1'
#17500
b0 ]
1&
#20000
0&
0'
#22500
1&
#25000
0&
1'
#27500
1&
#30000
0&
0'
#32500
1&
#35000
0&
1'
#37500
1&
#40000
0&
0'
#42500
1&
#45000
0&
1'
#47500
1&
#50000
0&
0'
#52500
1&
#55000
0&
1'
#57500
1&
#60000
0&
0'
#62500
1&
#65000
0&
1'
#67500
1&
#70000
0&
0'
#72500
1&
#75000
0&
1'
#77500
1&
#80000
0&
0'
#82500
1&
#85000
0&
1'
#87500
1&
#90000
0&
0'
#92500
1&
#95000
0&
1'
#97500
1&
#100000
0&
0'
1(
1q
1)
#102500
1S
b1 ]
1T
b1 \
1&
#105000
0&
1'
#107500
0S
b1 Y
b1 X
0T
b10 \
19
b11 ]
1&
#110000
0&
0'
#112500
b111 ]
b11 \
1&
#115000
0&
1'
#117500
b0 \
b1111 ]
1&
#120000
0&
0'
0(
#122500
1S
b1110 ]
1T
b1 \
1&
#125000
0&
1'
#127500
0S
b10 Y
0T
b10 \
09
b1100 ]
1&
#130000
0&
0'
#132500
b1000 ]
b11 \
1&
#135000
0&
1'
#137500
b0 \
b0 ]
1&
#140000
0&
0'
1(
#142500
1S
b1 ]
1T
b1 \
1&
#145000
0&
1'
#147500
0S
b11 Y
0T
b10 \
19
b11 ]
1&
#150000
0&
0'
#152500
b111 ]
b11 \
1&
#155000
0&
1'
#157500
b0 \
b1111 ]
1&
#160000
0&
0'
0(
#162500
1S
b1110 ]
1T
b1 \
1&
#165000
0&
1'
#167500
0S
b100 Y
0T
b10 \
09
b1100 ]
1&
#170000
0&
0'
#172500
b1000 ]
b11 \
1&
#175000
0&
1'
#177500
b0 \
b0 ]
1&
#180000
0&
0'
1(
#182500
1S
b1 ]
1T
b1 \
1&
#185000
0&
1'
#187500
0S
b101 Y
0T
b10 \
19
b11 ]
1&
#190000
0&
0'
#192500
b111 ]
b11 \
1&
#195000
0&
1'
#197500
b0 \
b1111 ]
1&
#200000
0&
0'
0(
#202500
1S
b1110 ]
1T
b1 \
1&
#205000
0&
1'
#207500
0S
b110 Y
0T
b10 \
09
b1100 ]
1&
#210000
0&
0'
#212500
b1000 ]
b11 \
1&
#215000
0&
1'
#217500
b0 \
b0 ]
1&
#220000
0&
0'
1(
#222500
1S
b1 ]
1T
b1 \
1&
#225000
0&
1'
#227500
0S
b111 Y
0T
b10 \
19
b11 ]
1&
#230000
0&
0'
#232500
b111 ]
b11 \
1&
#235000
0&
1'
#237500
b0 \
b1111 ]
1&
#240000
0&
0'
0(
#242500
1S
b1110 ]
1T
b1 \
1&
#245000
0&
1'
#247500
0S
b1000 Y
0T
b10 \
09
b1100 ]
1&
#250000
0&
0'
#252500
b1000 ]
b11 \
1&
#255000
0&
1'
#257500
b0 \
b0 ]
1&
#260000
0&
0'
1(
#262500
1S
b1 ]
1T
b1 \
1&
#265000
0&
1'
#267500
0S
b1001 Y
0T
b10 \
19
b11 ]
1&
#270000
0&
0'
#272500
b111 ]
b11 \
1&
#275000
0&
1'
#277500
b0 \
b1111 ]
1&
#280000
0&
0'
0(
#282500
1S
b1110 ]
1T
b1 \
1&
#285000
0&
1'
#287500
0S
b1010 Y
0T
b10 \
09
b1100 ]
1&
#290000
0&
0'
#292500
b1000 ]
b11 \
1&
#295000
0&
1'
#297500
b0 \
b0 ]
1&
#300000
0&
0'
1(
#302500
1S
b1 ]
1T
b1 \
1&
#305000
0&
1'
#307500
0S
b1011 Y
0T
b10 \
19
b11 ]
1&
#310000
0&
0'
#312500
b111 ]
b11 \
1&
#315000
0&
1'
#317500
b0 \
b1111 ]
1&
#320000
0&
0'
0(
#322500
1S
b1110 ]
1T
b1 \
1&
#325000
0&
1'
#327500
0S
b1100 Y
0T
b10 \
09
b1100 ]
1&
#330000
0&
0'
#332500
b1000 ]
b11 \
1&
#335000
0&
1'
#337500
b0 \
b0 ]
1&
#340000
0&
0'
1(
#342500
1S
b1 ]
1T
b1 \
1&
#345000
0&
1'
#347500
0S
b1101 Y
0T
b10 \
19
b11 ]
1&
#350000
0&
0'
#352500
b111 ]
b11 \
1&
#355000
0&
1'
#357500
b0 \
b1111 ]
1&
#360000
0&
0'
0(
#362500
1S
b1110 ]
1T
b1 \
1&
#365000
0&
1'
#367500
0S
b1110 Y
0T
b10 \
09
b1100 ]
1&
#370000
0&
0'
#372500
b1000 ]
b11 \
1&
#375000
0&
1'
#377500
b0 \
b0 ]
1&
#380000
0&
0'
1(
#382500
1S
b1 ]
1T
b1 \
1&
#385000
0&
1'
#387500
0S
b1111 Y
0T
b10 \
19
b11 ]
1&
#390000
0&
0'
#392500
b111 ]
b11 \
1&
#395000
0&
1'
#397500
b0 \
b1111 ]
1&
#400000
0&
0'
0(
#402500
1S
b1110 ]
1T
b1 \
1&
#405000
0&
1'
#407500
0S
b10000 Y
0T
b10 \
09
b1100 ]
1&
#410000
0&
0'
#412500
b1000 ]
b11 \
1&
#415000
0&
1'
#417500
b0 \
b0 ]
1&
#420000
0&
0'
1(
#422500
1S
b1 ]
1T
b1 \
1&
#425000
0&
1'
#427500
0S
b10001 Y
0T
b10 \
19
b11 ]
1&
#430000
0&
0'
#432500
b111 ]
b11 \
1&
#435000
0&
1'
#437500
b0 \
b1111 ]
1&
#440000
0&
0'
0(
#442500
1S
b1110 ]
1T
b1 \
1&
#445000
0&
1'
#447500
0S
b10010 Y
0T
b10 \
09
b1100 ]
1&
#450000
0&
0'
#452500
b1000 ]
b11 \
1&
#455000
0&
1'
#457500
b0 \
b0 ]
1&
#460000
0&
0'
1(
#462500
1S
b1 ]
1T
b1 \
1&
#465000
0&
1'
#467500
0S
b10011 Y
0T
b10 \
19
b11 ]
1&
#470000
0&
0'
#472500
b111 ]
b11 \
1&
#475000
0&
1'
#477500
b0 \
b1111 ]
1&
#480000
0&
0'
0(
#482500
1S
b1110 ]
1T
b1 \
1&
#485000
0&
1'
#487500
0S
b10100 Y
0T
b10 \
09
b1100 ]
1&
#490000
0&
0'
#492500
b1000 ]
b11 \
1&
#495000
0&
1'
#497500
b0 \
b0 ]
1&
#500000
0&
0'
1(
#502500
1S
b1 ]
1T
b1 \
1&
#505000
0&
1'
#507500
0S
b10101 Y
0T
b10 \
19
b11 ]
1&
#510000
0&
0'
#512500
b111 ]
b11 \
1&
#515000
0&
1'
#517500
b0 \
b1111 ]
1&
#520000
0&
0'
0(
#522500
1S
b1110 ]
1T
b1 \
1&
#525000
0&
1'
#527500
0S
b10110 Y
0T
b10 \
09
b1100 ]
1&
#530000
0&
0'
#532500
b1000 ]
b11 \
1&
#535000
0&
1'
#537500
b0 \
b0 ]
1&
#540000
0&
0'
1(
#542500
1S
b1 ]
1T
b1 \
1&
#545000
0&
1'
#547500
0S
b10111 Y
0T
b10 \
19
b11 ]
1&
#550000
0&
0'
#552500
b111 ]
b11 \
1&
#555000
0&
1'
#557500
b0 \
b1111 ]
1&
#560000
0&
0'
0(
#562500
1S
b1110 ]
1T
b1 \
1&
#565000
0&
1'
#567500
0S
b11000 Y
0T
b10 \
09
b1100 ]
1&
#570000
0&
0'
#572500
b1000 ]
b11 \
1&
#575000
0&
1'
#577500
b0 \
b0 ]
1&
#580000
0&
0'
1(
#582500
1S
b1 ]
1T
b1 \
1&
#585000
0&
1'
#587500
0S
b11001 Y
0T
b10 \
19
b11 ]
1&
#590000
0&
0'
#592500
b111 ]
b11 \
1&
#595000
0&
1'
#597500
b0 \
b1111 ]
1&
#600000
0&
0'
0(
#602500
1S
b1110 ]
1T
b1 \
1&
#605000
0&
1'
#607500
0S
b11010 Y
0T
b10 \
09
b1100 ]
1&
#610000
0&
0'
#612500
b1000 ]
b11 \
1&
#615000
0&
1'
#617500
b0 \
b0 ]
1&
#620000
0&
0'
1(
#622500
1S
b1 ]
1T
b1 \
1&
#625000
0&
1'
#627500
0S
b11011 Y
0T
b10 \
19
b11 ]
1&
#630000
0&
0'
#632500
b111 ]
b11 \
1&
#635000
0&
1'
#637500
b0 \
b1111 ]
1&
#640000
0&
0'
0(
#642500
1S
b1110 ]
1T
b1 \
1&
#645000
0&
1'
#647500
0S
b11100 Y
0T
b10 \
09
b1100 ]
1&
#650000
0&
0'
#652500
b1000 ]
b11 \
1&
#655000
0&
1'
#657500
b0 \
b0 ]
1&
#660000
0&
0'
1(
#662500
1S
b1 ]
1T
b1 \
1&
#665000
0&
1'
#667500
0S
b11101 Y
0T
b10 \
19
b11 ]
1&
#670000
0&
0'
#672500
b111 ]
b11 \
1&
#675000
0&
1'
#677500
b0 \
b1111 ]
1&
#680000
0&
0'
0(
#682500
1S
b1110 ]
1T
b1 \
1&
#685000
0&
1'
#687500
0S
b11110 Y
0T
b10 \
09
b1100 ]
1&
#690000
0&
0'
#692500
b1000 ]
b11 \
1&
#695000
0&
1'
#697500
b0 \
b0 ]
1&
#700000
0&
0'
1(
#702500
1S
b1 ]
1T
b1 \
1&
#705000
0&
1'
#707500
0S
b11111 Y
0T
b10 \
19
b11 ]
1&
#710000
0&
0'
#712500
b111 ]
b11 \
1&
#715000
0&
1'
#717500
b0 \
b1111 ]
1&
#720000
0&
0'
0(
#722500
1S
b1110 ]
1T
b1 \
1&
#725000
0&
1'
#727500
0S
b100000 Y
0T
b10 \
09
b1100 ]
1&
#730000
0&
0'
#732500
b1000 ]
b11 \
1&
#735000
0&
1'
#737500
b0 \
b0 ]
1&
#740000
0&
0'
1(
#742500
1S
b1 ]
1T
b1 \
1&
#745000
0&
1'
#747500
0S
1%
17
b10 X
b0 Y
0T
b10 \
19
b11 ]
1&
#750000
0&
0'
#752500
b111 ]
b1 Y
b11 \
1&
#755000
0&
1'
#757500
b10 Y
b0 \
b1111 ]
1&
#760000
0&
0'
0(
#762500
1S
18
b1110 ]
b11 Y
1T
b1 \
1&
#765000
bx1 g
0&
1'
#767500
0S
08
b0 Y
0T
b10 \
b1 Z
09
b1100 ]
1&
#770000
0&
0'
#772500
b1000 ]
b1 Y
b11 \
1&
#775000
0&
1'
#777500
b10 Y
b0 \
b0 ]
1&
#780000
0&
0'
1(
#782500
1S
18
b1 ]
b11 Y
1T
b1 \
1&
#785000
bx10 g
0&
1'
#787500
0S
08
b0 Y
0T
b10 \
b10 Z
19
b11 ]
1&
#790000
0&
0'
#792500
b111 ]
b1 Y
b11 \
1&
#795000
0&
1'
#797500
b10 Y
b0 \
b1111 ]
1&
#800000
0&
0'
0(
#802500
1S
18
b1110 ]
b11 Y
1T
b1 \
1&
#805000
bx101 g
0&
1'
#807500
0S
08
b0 Y
0T
b10 \
b11 Z
09
b1100 ]
1&
#810000
0&
0'
#812500
b1000 ]
b1 Y
b11 \
1&
#815000
0&
1'
#817500
b10 Y
b0 \
b0 ]
1&
#820000
0&
0'
1(
#822500
1S
18
b1 ]
b11 Y
1T
b1 \
1&
#825000
bx1010 g
0&
1'
#827500
0S
08
b0 Y
0T
b10 \
b100 Z
19
b11 ]
1&
#830000
0&
0'
#832500
b111 ]
b1 Y
b11 \
1&
#835000
0&
1'
#837500
b10 Y
b0 \
b1111 ]
1&
#840000
0&
0'
0(
#842500
1S
18
b1110 ]
b11 Y
1T
b1 \
1&
#845000
bx10101 g
0&
1'
#847500
0S
08
b0 Y
0T
b10 \
b101 Z
09
b1100 ]
1&
#850000
0&
0'
#852500
b1000 ]
b1 Y
b11 \
1&
#855000
0&
1'
#857500
b10 Y
b0 \
b0 ]
1&
#860000
0&
0'
1(
#862500
1S
18
b1 ]
b11 Y
1T
b1 \
1&
#865000
bx101010 g
0&
1'
#867500
0S
08
b0 Y
0T
b10 \
b110 Z
19
b11 ]
1&
#870000
0&
0'
#872500
b111 ]
b1 Y
b11 \
1&
#875000
0&
1'
#877500
b10 Y
b0 \
b1111 ]
1&
#880000
0&
0'
0(
#882500
1S
18
b1110 ]
b11 Y
1T
b1 \
1&
#885000
bx1010101 g
0&
1'
#887500
0S
08
b0 Y
0T
b10 \
b111 Z
09
b1100 ]
1&
#890000
0&
0'
#892500
b1000 ]
b1 Y
b11 \
1&
#895000
0&
1'
#897500
b10 Y
b0 \
b0 ]
1&
#900000
0&
0'
1(
#902500
1S
18
b1 ]
b11 Y
1T
b1 \
1&
#905000
bx10101010 g
0&
1'
#907500
0S
08
b0 Y
0T
b10 \
b1000 Z
19
b11 ]
1&
#910000
0&
0'
#912500
b111 ]
b0 [
b1 Y
b11 \
1&
#915000
0&
1'
#917500
b10 Y
b0 \
b11 [
b1111 ]
1&
#920000
0&
0'
0(
#922500
1S
18
b1110 ]
b10 [
b11 Y
1T
b1 \
1&
#925000
b111 ^
b111 i
b11111111111111111111111111111111 k
bx1 j
bx101010101 g
0&
1'
#927500
0S
08
b0 Y
0T
b10 \
09
b1 [
b1001 Z
b1100 ]
1&
#930000
0&
0'
#932500
b1000 ]
b0 [
b1 Y
b11 \
1&
#935000
0&
1'
#937500
b10 Y
b0 \
b11 [
b0 ]
1&
#940000
0&
0'
1(
#942500
1S
18
b1 ]
b10 [
b11 Y
1T
b1 \
1&
#945000
b1110 ^
b11111111111111111111111111111111 k
b1110 i
bx10 j
bx1010101010 g
0&
1'
#947500
0S
08
b0 Y
0T
b10 \
19
b1 [
b1010 Z
b11 ]
1&
#950000
0&
0'
#952500
b111 ]
b0 [
b1 Y
b11 \
1&
#955000
0&
1'
#957500
b10 Y
b0 \
b11 [
b1111 ]
1&
#960000
0&
0'
0(
#962500
1S
18
b1110 ]
b10 [
b11 Y
1T
b1 \
1&
#965000
b11011 ^
b11111111111111111111111111111111 k
b11011 i
bx101 j
bx10101010101 g
0&
1'
#967500
0S
08
b0 Y
0T
b10 \
09
b1 [
b1011 Z
b1100 ]
1&
#970000
0&
0'
#972500
b1000 ]
b0 [
b1 Y
b11 \
1&
#975000
0&
1'
#977500
b10 Y
b0 \
b11 [
b0 ]
1&
#980000
0&
0'
1(
#982500
1S
18
b1 ]
b10 [
b11 Y
1T
b1 \
1&
#985000
b110110 ^
b11111111111111111111111111111111 k
b110110 i
bx1010 j
bx101010101010 g
0&
1'
#987500
0S
08
b0 Y
0T
b10 \
19
b1 [
b1100 Z
b11 ]
1&
#990000
0&
0'
#992500
b111 ]
b0 [
b1 Y
b11 \
1&
#995000
0&
1'
#997500
b10 Y
b0 \
b11 [
b1111 ]
1&
#1000000
0&
0'
0(
#1002500
1S
18
b1110 ]
b10 [
b11 Y
1T
b1 \
1&
#1005000
b1101011 ^
b11111111111111111111111111111111 k
b1101011 i
bx10101 j
bx1010101010101 g
0&
1'
#1007500
0S
08
b0 Y
0T
b10 \
09
b1 [
b1101 Z
b1100 ]
1&
#1010000
0&
0'
#1012500
b1000 ]
b0 [
b1 Y
b11 \
1&
#1015000
0&
1'
#1017500
b10 Y
b0 \
b11 [
b0 ]
1&
#1020000
0&
0'
1(
#1022500
1S
18
b1 ]
b10 [
b11 Y
1T
b1 \
1&
#1025000
b11010110 ^
b11111111111111111111111111111111 k
b11010110 i
bx101010 j
bx10101010101010 g
0&
1'
#1027500
0S
08
b0 Y
0T
b10 \
19
b1 [
b1110 Z
b11 ]
1&
#1030000
0&
0'
#1032500
b111 ]
b0 [
b1 Y
b11 \
1&
#1035000
0&
1'
#1037500
b10 Y
b0 \
b11 [
b1111 ]
1&
#1040000
0&
0'
0(
#1042500
1S
18
b1110 ]
b10 [
b11 Y
1T
b1 \
1&
#1045000
b10101100 ^
b11111111111111111111111111111111 k
b10101100 i
bx1010101 j
bx101010101010101 g
0&
1'
#1047500
0S
08
b0 Y
0T
b10 \
09
b1 [
b1111 Z
b1100 ]
1&
#1050000
0&
0'
#1052500
b1000 ]
b0 [
b1 Y
b11 \
1&
#1055000
0&
1'
#1057500
b10 Y
b0 \
b11 [
b0 ]
1&
#1060000
0&
0'
1(
#1062500
1S
18
b1 ]
b10 [
b11 Y
1T
b1 \
1&
#1065000
b1011111 ^
b11111111111111111111111111111111 k
b1011111 i
bx10101010 j
bx1010101010101010 g
0&
1'
#1067500
0S
08
b0 Y
0T
b10 \
19
b1 [
b10000 Z
b11 ]
1&
#1070000
0&
0'
#1072500
b111 ]
b0 [
b1 Y
b11 \
1&
#1075000
0&
1'
#1077500
b10 Y
b0 \
b11 [
b1111 ]
1&
#1080000
0&
0'
0(
#1082500
1S
18
b1110 ]
b10 [
b11 Y
1T
b1 \
1&
#1085000
b10111001 ^
b11111111111111111111111111111111 k
b10111001 i
bx101010101 j
bx10101010101010101 g
0&
1'
#1087500
0S
08
b0 Y
0T
b10 \
09
b1 [
b10001 Z
b1100 ]
1&
#1090000
0&
0'
#1092500
b1000 ]
b0 [
b1 Y
b11 \
1&
#1095000
0&
1'
#1097500
b10 Y
b0 \
b11 [
b0 ]
1&
#1100000
0&
0'
1(
#1102500
1S
18
b1 ]
b10 [
b11 Y
1T
b1 \
1&
#1105000
b1110101 ^
b11111111111111111111111111111111 k
b1110101 i
bx1010101010 j
bx101010101010101010 g
0&
1'
#1107500
0S
08
b0 Y
0T
b10 \
19
b1 [
b10010 Z
b11 ]
1&
#1110000
0&
0'
#1112500
b111 ]
b0 [
b1 Y
b11 \
1&
#1115000
0&
1'
#1117500
b10 Y
b0 \
b11 [
b1111 ]
1&
#1120000
0&
0'
0(
#1122500
1S
18
b1110 ]
b10 [
b11 Y
1T
b1 \
1&
#1125000
b11101101 ^
b11111111111111111111111111111111 k
b11101101 i
bx10101010101 j
bx1010101010101010101 g
0&
1'
#1127500
0S
08
b0 Y
0T
b10 \
09
b1 [
b10011 Z
b1100 ]
1&
#1130000
0&
0'
#1132500
b1000 ]
b0 [
b1 Y
b11 \
1&
#1135000
0&
1'
#1137500
b10 Y
b0 \
b11 [
b0 ]
1&
#1140000
0&
0'
1(
#1142500
1S
18
b1 ]
b10 [
b11 Y
1T
b1 \
1&
#1145000
b11011101 ^
b11111111111111111111111111111111 k
b11011101 i
bx101010101010 j
bx10101010101010101010 g
0&
1'
#1147500
0S
08
b0 Y
0T
b10 \
19
b1 [
b10100 Z
b11 ]
1&
#1150000
0&
0'
#1152500
b111 ]
b0 [
b1 Y
b11 \
1&
#1155000
0&
1'
#1157500
b10 Y
b0 \
b11 [
b1111 ]
1&
#1160000
0&
0'
0(
#1162500
1S
18
b1110 ]
b10 [
b11 Y
1T
b1 \
1&
#1165000
b10111010 ^
b11111111111111111111111111111111 k
b10111010 i
bx1010101010101 j
bx101010101010101010101 g
0&
1'
#1167500
0S
08
b0 Y
0T
b10 \
09
b1 [
b10101 Z
b1100 ]
1&
#1170000
0&
0'
#1172500
b1000 ]
b0 [
b1 Y
b11 \
1&
#1175000
0&
1'
#1177500
b10 Y
b0 \
b11 [
b0 ]
1&
#1180000
0&
0'
1(
#1182500
1S
18
b1 ]
b10 [
b11 Y
1T
b1 \
1&
#1185000
b1110011 ^
b11111111111111111111111111111111 k
b1110011 i
bx10101010101010 j
bx1010101010101010101010 g
0&
1'
#1187500
0S
08
b0 Y
0T
b10 \
19
b1 [
b10110 Z
b11 ]
1&
#1190000
0&
0'
#1192500
b111 ]
b0 [
b1 Y
b11 \
1&
#1195000
0&
1'
#1197500
b10 Y
b0 \
b11 [
b1111 ]
1&
#1200000
0&
0'
0(
#1202500
1S
18
b1110 ]
b10 [
b11 Y
1T
b1 \
1&
#1205000
b11100001 ^
b11111111111111111111111111111111 k
b11100001 i
bx101010101010101 j
bx10101010101010101010101 g
0&
1'
#1207500
0S
08
b0 Y
0T
b10 \
09
b1 [
b10111 Z
b1100 ]
1&
#1210000
0&
0'
#1212500
b1000 ]
b0 [
b1 Y
b11 \
1&
#1215000
0&
1'
#1217500
b10 Y
b0 \
b11 [
b0 ]
1&
#1220000
0&
0'
1(
#1222500
1S
18
b1 ]
b10 [
b11 Y
1T
b1 \
1&
#1225000
b11000101 ^
b11111111111111111111111111111111 k
b11000101 i
bx1010101010101010 j
bx101010101010101010101010 g
0&
1'
#1227500
0S
08
b0 Y
0T
b10 \
19
b1 [
b11000 Z
b11 ]
1&
#1230000
0&
0'
#1232500
b111 ]
b0 [
b1 Y
b11 \
1&
#1235000
0&
1'
#1237500
b10 Y
b0 \
b11 [
b1111 ]
1&
#1240000
0&
0'
0(
#1242500
1S
18
b1110 ]
b10 [
b11 Y
1T
b1 \
1&
#1245000
b10001010 ^
b11111111111111111111111111111111 k
b10001010 i
bx10101010101010101 j
bx1010101010101010101010101 g
0&
1'
#1247500
0S
08
b0 Y
0T
b10 \
09
b1 [
b11001 Z
b1100 ]
1&
#1250000
0&
0'
#1252500
b1000 ]
b0 [
b1 Y
b11 \
1&
#1255000
0&
1'
#1257500
b10 Y
b0 \
b11 [
b0 ]
1&
#1260000
0&
0'
1(
#1262500
1S
18
b1 ]
b10 [
b11 Y
1T
b1 \
1&
#1265000
b10011 ^
b11111111111111111111111111111111 k
b10011 i
bx101010101010101010 j
bx10101010101010101010101010 g
0&
1'
#1267500
0S
08
b0 Y
0T
b10 \
19
b1 [
b11010 Z
b11 ]
1&
#1270000
0&
0'
#1272500
b111 ]
b0 [
b1 Y
b11 \
1&
#1275000
0&
1'
#1277500
b10 Y
b0 \
b11 [
b1111 ]
1&
#1280000
0&
0'
0(
#1282500
1S
18
b1110 ]
b10 [
b11 Y
1T
b1 \
1&
#1285000
b100001 ^
b11111111111111111111111111111111 k
b100001 i
bx1010101010101010101 j
bx101010101010101010101010101 g
0&
1'
#1287500
0S
08
b0 Y
0T
b10 \
09
b1 [
b11011 Z
b1100 ]
1&
#1290000
0&
0'
#1292500
b1000 ]
b0 [
b1 Y
b11 \
1&
#1295000
0&
1'
#1297500
b10 Y
b0 \
b11 [
b0 ]
1&
#1300000
0&
0'
1(
#1302500
1S
18
b1 ]
b10 [
b11 Y
1T
b1 \
1&
#1305000
b1000010 ^
b11111111111111111111111111111111 k
b1000010 i
bx10101010101010101010 j
bx1010101010101010101010101010 g
0&
1'
#1307500
0S
08
b0 Y
0T
b10 \
19
b1 [
b11100 Z
b11 ]
1&
#1310000
0&
0'
#1312500
b111 ]
b0 [
b1 Y
b11 \
1&
#1315000
0&
1'
#1317500
b10 Y
b0 \
b11 [
b1111 ]
1&
#1320000
0&
0'
0(
#1322500
1S
18
b1110 ]
b10 [
b11 Y
1T
b1 \
1&
#1325000
b10000011 ^
b11111111111111111111111111111111 k
b10000011 i
bx101010101010101010101 j
bx10101010101010101010101010101 g
0&
1'
#1327500
0S
08
b0 Y
0T
b10 \
09
b1 [
b11101 Z
b1100 ]
1&
#1330000
0&
0'
#1332500
b1000 ]
b0 [
b1 Y
b11 \
1&
#1335000
0&
1'
#1337500
b10 Y
b0 \
b11 [
b0 ]
1&
#1340000
0&
0'
1(
#1342500
1S
18
b1 ]
b10 [
b11 Y
1T
b1 \
1&
#1345000
b1 ^
b11111111111111111111111111111111 k
b1 i
bx1010101010101010101010 j
bx101010101010101010101010101010 g
0&
1'
#1347500
0S
08
b0 Y
0T
b10 \
19
b1 [
b11110 Z
b11 ]
1&
#1350000
0&
0'
#1352500
b111 ]
b0 [
b1 Y
b11 \
1&
#1355000
0&
1'
#1357500
b10 Y
b0 \
b11 [
b1111 ]
1&
#1360000
0&
0'
0(
#1362500
1S
18
b1110 ]
b10 [
b11 Y
1T
b1 \
1&
#1365000
b101 ^
b11111111111111111111111111111111 k
b101 i
bx10101010101010101010101 j
bx1010101010101010101010101010101 g
0&
1'
#1367500
0S
08
b0 Y
0T
b10 \
09
b1 [
b11111 Z
b1100 ]
1&
#1370000
0&
0'
#1372500
b1000 ]
b0 [
b1 Y
b11 \
1&
#1375000
0&
1'
#1377500
b10 Y
b0 \
b11 [
b0 ]
1&
#1380000
0&
0'
1(
#1382500
1S
18
b1 ]
b10 [
b11 Y
1T
b1 \
1&
