testbench/tb_encoder.vcd
$date
	Thu Nov 20 16:29:21 2025
$end
$version
	Icarus Verilog
$end
$timescale
	1ps
$end
$scope module tb_encoder $end
$var wire 1 ! sclk $end
$var wire 1 " mosi $end
$var wire 1 # link_active $end
$var wire 8 $ frame_count [7:0] $end
$var wire 1 % ddr_p $end
$var wire 1 & ddr_n $end
$var wire 1 ' cs_n $end
$var reg 6 ( bit_cnt [5:0] $end
$var reg 1 ) clk_spi $end
$var reg 1 * clk_sys $end
$var reg 1 + enable $end
$var reg 1 , miso $end
$var reg 1 - rst_n $end
$var reg 32 . sensor_data [31:0] $end
$scope module u_dut $end
$var wire 1 ) clk_spi $end
$var wire 1 * clk_sys $end
$var wire 1 + enable $end
$var wire 8 / frame_count [7:0] $end
$var wire 1 # link_active $end
$var wire 1 , miso $end
$var wire 1 - rst_n $end
$var wire 1 0 spi_valid $end
$var wire 32 1 spi_data [31:0] $end
$var wire 1 ! sclk $end
$var wire 1 2 packer_valid $end
$var wire 1 3 packer_ready $end
$var wire 8 4 packer_frame_cnt [7:0] $end
$var wire 1 5 packer_bit $end
$var wire 1 " mosi $end
$var wire 1 % ddr_p $end
$var wire 1 & ddr_n $end
$var wire 1 ' cs_n $end
$scope module u_frame_packer $end
$var wire 1 6 clk_spi $end
$var wire 1 * clk_sys $end
$var wire 32 7 convert_data [31:0] $end
$var wire 8 8 frame_count [7:0] $end
$var wire 1 - rst_n $end
$var wire 1 3 tx_bit_ready $end
$var wire 1 9 fifo_full $end
$var wire 1 : fifo_empty $end
$var wire 32 ; fifo_dout [31:0] $end
$var wire 1 0 din_valid $end
$var wire 32 < din [31:0] $end
$var wire 8 = convert_crc [7:0] $end
$var parameter 8 > CRC_POLY $end
$var parameter 2 ? IDLE $end
$var parameter 2 @ LOAD $end
$var parameter 2 A SEND $end
$var parameter 8 B SYNC_BYTE $end
$var reg 6 C bit_cnt [5:0] $end
$var reg 1 D fifo_rd_en $end
$var reg 8 E frame_cnt [7:0] $end
$var reg 1 F sending $end
$var reg 56 G shift_reg [55:0] $end
$var reg 2 H state [1:0] $end
$var reg 1 5 tx_bit $end
$var reg 1 2 tx_bit_valid $end
$scope function calc_crc8 $end
$var reg 8 I cnt [7:0] $end
$var reg 8 J crc [7:0] $end
$var reg 32 K data [31:0] $end
$var reg 48 L msg [47:0] $end
$var integer 32 M i [31:0] $end
$upscope $end
$scope module u_async_fifo $end
$var wire 1 * clk_rd $end
$var wire 1 6 clk_wr $end
$var wire 1 D rd_en $end
$var wire 5 N rd_ptr_gray_next [4:0] $end
$var wire 1 - rst_rd_n $end
$var wire 1 - rst_wr_n $end
$var wire 1 O valid $end
$var wire 5 P wr_ptr_gray_next [4:0] $end
$var wire 5 Q wr_ptr_bin_next [4:0] $end
$var wire 1 0 wr_en $end
$var wire 5 R used_words_wr [4:0] $end
$var wire 5 S rd_ptr_bin_next [4:0] $end
$var wire 1 9 full $end
$var wire 1 : empty $end
$var wire 32 T dout [31:0] $end
$var wire 32 U din [31:0] $end
$var wire 1 V almost_full $end
$var parameter 32 W ADDR_WIDTH $end
$var parameter 37 X ALMOST_FULL_THRESHOLD $end
$var parameter 32 Y DATA_WIDTH $end
$var parameter 36 Z FIFO_DEPTH $end
$var parameter 33 [ PTR_WIDTH $end
$var reg 32 \ rd_data_reg [31:0] $end
$var reg 5 ] rd_gray_wr1 [4:0] $end
$var reg 5 ^ rd_gray_wr2 [4:0] $end
$var reg 5 _ rd_ptr_bin [4:0] $end
$var reg 5 ` rd_ptr_bin_wr [4:0] $end
$var reg 5 a rd_ptr_gray [4:0] $end
$var reg 1 b rd_valid_reg $end
$var reg 5 c wr_gray_rd1 [4:0] $end
$var reg 5 d wr_gray_rd2 [4:0] $end
$var reg 5 e wr_ptr_bin [4:0] $end
$var reg 5 f wr_ptr_gray [4:0] $end
$var integer 32 g i [31:0] $end
$upscope $end
$upscope $end
$scope module u_manchester $end
$var wire 1 5 bit_in $end
$var wire 1 2 bit_valid $end
$var wire 1 * clk_sys $end
$var wire 1 & ddr_n $end
$var wire 1 - rst_n $end
$var wire 1 + tx_en $end
$var wire 1 h first_half $end
$var wire 1 % ddr_p $end
$var wire 1 3 bit_ready $end
$var reg 2 i half_cnt [1:0] $end
$upscope $end
$scope module u_spi_master $end
$var wire 1 ) clk_spi $end
$var wire 1 + enable $end
$var wire 1 j enable_sync $end
$var wire 1 , miso $end
$var wire 1 - rst_n $end
$var wire 1 k sclk_rising $end
$var wire 1 l sclk_falling $end
$var wire 1 ! sclk $end
$var wire 32 m convert_cmd [31:0] $end
$var parameter 2 n CMD_CONVERT $end
$var parameter 16 o CMD_PADDING $end
$var parameter 8 p DISCARD_FRAMES $end
$var parameter 3 q DONE $end
$var parameter 3 r GAP $end
$var parameter 6 s GAP_CYCLES $end
$var parameter 3 t IDLE $end
$var parameter 3 u LOAD $end
$var parameter 2 v SCLK_DIV_MAX $end
$var parameter 2 w SCLK_FALLING_EDGE $end
$var parameter 2 x SCLK_RISING_EDGE $end
$var parameter 3 y XFER $end
$var reg 6 z bit_cnt [5:0] $end
$var reg 1 ' cs_n $end
$var reg 4 { curr_chan [3:0] $end
$var reg 32 | data_out [31:0] $end
$var reg 32 } data_out_reg [31:0] $end
$var reg 1 0 data_valid $end
$var reg 1 ~ data_valid_reg $end
$var reg 1 !" enable_spi1 $end
$var reg 1 "" enable_spi2 $end
$var reg 8 #" frame_cnt [7:0] $end
$var reg 6 $" gap_cnt [5:0] $end
$var reg 1 " mosi $end
$var reg 2 %" sclk_cnt [1:0] $end
$var reg 32 &" shifter_rx [31:0] $end
$var reg 32 '" shifter_tx [31:0] $end
$var reg 3 (" state [2:0] $end
$upscope $end
$upscope $end
$upscope $end
$enddefinitions $end
$comment Show the parameter values. $end
$dumpall
b10 y
b1 x
b11 w
b11 v
b1 u
b0 t
b1111 s
b11 r
b100 q
b10 p
b0 o
b0 n
b101 [
b10000 Z
b100000 Y
b1110 X
b100 W
b10101010 B
b10 A
b1 @
b0 ?
b111 >
$end
#0
$dumpvars
b0 ("
b0 '"
b0 &"
b0 %"
b0 $"
b0 #"
x""
x!"
0~
b0 }
b0 |
b0 {
b0 z
b10000000000000000000000000 m
0l
0k
xj
b0 i
1h
b11111111111111111111111111111111 g
b0 f
b0 e
b0 d
b0 c
0b
b0 a
b0 `
b0 _
b0 ^
b0 ]
b0 \
0V
b0 U
b0 T
b0 S
b0 R
b0 Q
b0 P
0O
b0 N
b11111111111111111111111111111111 M
b101010100000000000000000000000000000000000000000 L
b0 K
b11001010 J
b0 I
b0 H
b0 G
0F
b0 E
0D
b0 C
b11001010 =
b0 <
b0 ;
1:
09
b0 8
b0 7
z6
05
b0 4
03
02
b0 1
00
b0 /
b10010001101000101011001111000 .
0-
0,
0+
0*
0)
bx (
1'
1&
0%
b0 $
0#
0"
0!
$end
#5000
1*
#7813
0!"
1)
#10000
0*
#15000
1*
#15626
0)
#20000
0*
#23439
0j
0""
1)
#25000
1*
#30000
0*
#31252
0)
#35000
1*
#39065
1)
#40000
0*
#45000
1*
#46878
0)
#50000
0*
#54691
1)
#55000
1*
#60000
0*
#62504
0)
#65000
1*
#70000
0*
#70317
1)
#75000
1*
#78130
0)
#80000
0*
#85000
1*
#85943
1)
#90000
0*
#93756
0)
#95000
1*
#100000
0*
1-
#101569
1k
b1 %"
1)
#105000
1*
#109382
0)
#110000
0*
#115000
1*
#117195
b0 (
1!
0k
b10 %"
1)
#120000
0*
#125000
1*
#125008
0)
#130000
0*
#132821
1l
b11 %"
1)
#135000
1*
#140000
0*
#140634
0)
#145000
1*
#148447
0!
0l
b0 %"
1)
#150000
0*
#155000
1*
#156260
0)
#160000
0*
#164073
1k
b1 %"
1)
#165000
1*
#170000
0*
#171886
0)
#175000
1*
#179699
1!
0k
b10 %"
1)
#180000
0*
#185000
1*
#187512
0)
#190000
0*
#195000
1*
#195325
1l
b11 %"
1)
#200000
0*
1#
1+
#203138
0)
#205000
b1 i
1*
#210000
0*
#210951
0!
0l
b0 %"
1!"
1)
#215000
0&
1%
0h
b10 i
1*
#218764
0)
#220000
0*
#225000
13
b11 i
1*
#226577
1k
b1 %"
1j
1""
1)
#230000
0*
#234390
0)
#235000
1&
0%
1h
03
b0 i
1*
#240000
0*
#242203
1!
0k
b10 %"
b1 ("
1)
#245000
b1 i
1*
#250000
0*
#250016
0)
#255000
0&
1%
0h
b10 i
1*
#257829
b1 (
b10 ("
b10000000000000000000000000 '"
0'
1l
b11 %"
1)
#260000
0*
#265000
13
b11 i
1*
#265642
0)
#270000
0*
#273455
0!
0l
b0 %"
b1 z
1)
#275000
1&
0%
1h
03
b0 i
1*
#280000
0*
#281268
0)
#285000
b1 i
1*
#289081
1k
b1 %"
1)
#290000
0*
#295000
0&
1%
0h
b10 i
1*
#296894
0)
#300000
0*
#304707
b10 (
1!
0k
b10 %"
b100000000000000000000000000 '"
1)
#305000
13
b11 i
1*
#310000
0*
#312520
0)
#315000
1&
0%
1h
03
b0 i
1*
#320000
0*
#320333
1l
b11 %"
1)
#325000
b1 i
1*
#328146
0)
#330000
0*
#335000
0&
1%
0h
b10 i
1*
#335959
0!
0l
b0 %"
b10 z
1)
#340000
0*
#343772
0)
#345000
13
b11 i
1*
#350000
0*
#351585
1k
b1 %"
1)
#355000
1&
0%
1h
03
b0 i
1*
#359398
0)
#360000
0*
#365000
b1 i
1*
#367211
b11 (
1!
0k
b10 %"
b1000000000000000000000000000 '"
1)
#370000
0*
#375000
0&
1%
0h
b10 i
1*
#375024
0)
#380000
0*
#382837
1l
b11 %"
1)
#385000
13
b11 i
1*
#390000
0*
#390650
0)
#395000
1&
0%
1h
03
b0 i
1*
#398463
0!
0l
b0 %"
b11 z
1)
#400000
0*
#405000
b1 i
1*
#406276
0)
#410000
0*
#414089
1k
b1 %"
1)
#415000
0&
1%
0h
b10 i
1*
#420000
0*
#421902
0)
#425000
13
b11 i
1*
#429715
b100 (
1,
1!
0k
b10 %"
b10000000000000000000000000000 '"
1)
#430000
0*
#435000
1&
0%
1h
03
b0 i
1*
#437528
0)
#440000
0*
#445000
b1 i
1*
#445341
1l
b11 %"
1)
#450000
0*
#453154
0)
#455000
0&
1%
0h
b10 i
1*
#460000
0*
#460967
0!
0l
b0 %"
b100 z
b1 &"
1)
#465000
13
b11 i
1*
#468780
0)
#470000
0*
#475000
1&
0%
1h
03
b0 i
1*
#476593
1k
b1 %"
1)
#480000
0*
#484406
0)
#485000
b1 i
1*
#490000
0*
#492219
b101 (
0,
1!
0k
b10 %"
b100000000000000000000000000000 '"
1)
#495000
0&
1%
0h
b10 i
1*
#500000
0*
#500032
0)
#505000
13
b11 i
1*
#507845
1l
b11 %"
1)
#510000
0*
#515000
1&
0%
1h
03
b0 i
1*
#515658
0)
#520000
0*
#523471
0!
0l
b0 %"
b101 z
b10 &"
1)
#525000
b1 i
1*
#530000
0*
#531284
0)
#535000
0&
1%
0h
b10 i
1*
#539097
1k
b1 %"
1)
#540000
0*
#545000
13
b11 i
1*
#546910
0)
#550000
0*
#554723
b110 (
1!
0k
b10 %"
b1000000000000000000000000000000 '"
1)
#555000
1&
0%
1h
03
b0 i
1*
#560000
0*
#562536
0)
#565000
b1 i
1*
#570000
0*
#570349
1l
b11 %"
1)
#575000
0&
1%
0h
b10 i
1*
#578162
0)
#580000
0*
#585000
13
b11 i
1*
#585975
0!
0l
b0 %"
b110 z
b100 &"
1)
#590000
0*
#593788
0)
#595000
1&
0%
1h
03
b0 i
1*
#600000
0*
#601601
1k
b1 %"
1)
#605000
b1 i
1*
#609414
0)
#610000
0*
#615000
0&
1%
0h
b10 i
1*
#617227
b111 (
1,
1!
0k
b10 %"
b10000000000000000000000000000000 '"
1)
#620000
0*
#625000
13
b11 i
1*
#625040
0)
#630000
0*
#632853
1l
b11 %"
1)
#635000
1&
0%
1h
03
b0 i
1*
#640000
0*
#640666
0)
#645000
b1 i
1*
#648479
0!
0l
b0 %"
b111 z
b1001 &"
1)
#650000
0*
#655000
0&
1%
0h
b10 i
1*
#656292
0)
#660000
0*
#664105
1k
b1 %"
1)
#665000
13
b11 i
1*
#670000
0*
#671918
0)
#675000
1&
0%
1h
03
b0 i
1*
#679731
b1000 (
0,
1!
0k
b10 %"
b0 '"
1"
1)
#680000
0*
#685000
b1 i
1*
#687544
0)
#690000
0*
#695000
0&
1%
0h
b10 i
1*
#695357
1l
b11 %"
1)
#700000
0*
#703170
0)
#705000
13
b11 i
1*
#710000
0*
#710983
0!
0l
b0 %"
b1000 z
b10010 &"
1)
#715000
1&
0%
1h
03
b0 i
1*
#718796
0)
#720000
0*
#725000
b1 i
1*
#726609
1k
b1 %"
1)
#730000
0*
#734422
0)
#735000
0&
1%
0h
b10 i
1*
#740000
0*
#742235
b1001 (
1!
0k
b10 %"
0"
1)
#745000
13
b11 i
1*
#750000
0*
#750048
0)
#755000
1&
0%
1h
03
b0 i
1*
#757861
1l
b11 %"
1)
#760000
0*
#765000
b1 i
1*
#765674
0)
#770000
0*
#773487
0!
0l
b0 %"
b1001 z
b100100 &"
1)
#775000
0&
1%
0h
b10 i
1*
#780000
0*
#781300
0)
#785000
13
b11 i
1*
#789113
1k
b1 %"
1)
#790000
0*
#795000
1&
0%
1h
03
b0 i
1*
#796926
0)
#800000
0*
#804739
b1010 (
1!
0k
b10 %"
1)
#805000
b1 i
1*
#810000
0*
#812552
0)
#815000
0&
1%
0h
b10 i
1*
#820000
0*
#820365
1l
b11 %"
1)
#825000
13
b11 i
1*
#828178
0)
#830000
0*
#835000
1&
0%
1h
03
b0 i
1*
#835991
0!
0l
b0 %"
b1010 z
b1001000 &"
1)
#840000
0*
#843804
0)
#845000
b1 i
1*
#850000
0*
#851617
1k
b1 %"
1)
#855000
0&
1%
0h
b10 i
1*
#859430
0)
#860000
0*
#865000
13
b11 i
1*
#867243
b1011 (
1,
1!
0k
b10 %"
1)
#870000
0*
#875000
1&
0%
1h
03
b0 i
1*
#875056
0)
#880000
0*
#882869
1l
b11 %"
1)
#885000
b1 i
1*
#890000
0*
#890682
0)
#895000
0&
1%
0h
b10 i
1*
#898495
0!
0l
b0 %"
b1011 z
b10010001 &"
1)
#900000
0*
#905000
13
b11 i
1*
#906308
0)
#910000
0*
#914121
1k
b1 %"
1)
#915000
1&
0%
1h
03
b0 i
1*
#920000
0*
#921934
0)
#925000
b1 i
1*
#929747
b1100 (
1!
0k
b10 %"
1)
#930000
0*
#935000
0&
1%
0h
b10 i
1*
#937560
0)
#940000
0*
#945000
13
b11 i
1*
#945373
1l
b11 %"
1)
#950000
0*
#953186
0)
#955000
1&
0%
1h
03
b0 i
1*
#960000
0*
#960999
0!
0l
b0 %"
b1100 z
b100100011 &"
1)
#965000
b1 i
1*
#968812
0)
#970000
0*
#975000
0&
1%
0h
b10 i
1*
#976625
1k
b1 %"
1)
#980000
0*
#984438
0)
#985000
13
b11 i
1*
#990000
0*
#992251
b1101 (
0,
1!
0k
b10 %"
1)
#995000
1&
0%
1h
03
b0 i
1*
#1000000
0*
#1000064
0)
#1005000
b1 i
1*
#1007877
1l
b11 %"
1)
#1010000
0*
#1015000
0&
1%
0h
b10 i
1*
#1015690
0)
#1020000
0*
#1023503
0!
0l
b0 %"
b1101 z
b1001000110 &"
1)
#1025000
13
b11 i
1*
#1030000
0*
#1031316
0)
#1035000
1&
0%
1h
03
b0 i
1*
#1039129
1k
b1 %"
1)
#1040000
0*
#1045000
b1 i
1*
#1046942
0)
#1050000
0*
#1054755
b1110 (
1,
1!
0k
b10 %"
1)
#1055000
0&
1%
0h
b10 i
1*
#1060000
0*
#1062568
0)
#1065000
13
b11 i
1*
#1070000
0*
#1070381
1l
b11 %"
1)
#1075000
1&
0%
1h
03
b0 i
1*
#1078194
0)
#1080000
0*
#1085000
b1 i
1*
#1086007
0!
0l
b0 %"
b1110 z
b10010001101 &"
1)
#1090000
0*
#1093820
0)
#1095000
0&
1%
0h
b10 i
1*
#1100000
0*
#1101633
1k
b1 %"
1)
#1105000
13
b11 i
1*
#1109446
0)
#1110000
0*
#1115000
1&
0%
1h
03
b0 i
1*
#1117259
b1111 (
0,
1!
0k
b10 %"
1)
#1120000
0*
#1125000
b1 i
1*
#1125072
0)
#1130000
0*
#1132885
1l
b11 %"
1)
#1135000
0&
1%
0h
b10 i
1*
#1140000
0*
#1140698
0)
#1145000
13
b11 i
1*
#1148511
0!
0l
b0 %"
b1111 z
b100100011010 &"
1)
#1150000
0*
#1155000
1&
0%
1h
03
b0 i
1*
#1156324
0)
#1160000
0*
#1164137
1k
b1 %"
1)
#1165000
b1 i
1*
#1170000
0*
#1171950
0)
#1175000
0&
1%
0h
b10 i
1*
#1179763
b10000 (
1!
0k
b10 %"
1)
#1180000
0*
#1185000
13
b11 i
1*
#1187576
0)
#1190000
0*
#1195000
1&
0%
1h
03
b0 i
1*
#1195389
1l
b11 %"
1)
#1200000
0*
#1203202
0)
#1205000
b1 i
1*
#1210000
0*
#1211015
0!
0l
b0 %"
b10000 z
b1001000110100 &"
1)
#1215000
0&
1%
0h
b10 i
1*
#1218828
0)
#1220000
0*
#1225000
13
b11 i
1*
#1226641
1k
b1 %"
1)
#1230000
0*
#1234454
0)
#1235000
1&
0%
1h
03
b0 i
1*
#1240000
0*
#1242267
b10001 (
1!
0k
b10 %"
1)
#1245000
b1 i
1*
#1250000
0*
#1250080
0)
#1255000
0&
1%
0h
b10 i
1*
#1257893
1l
b11 %"
1)
#1260000
0*
#1265000
13
b11 i
1*
#1265706
0)
#1270000
0*
#1273519
0!
0l
b0 %"
b10001 z
b10010001101000 &"
1)
#1275000
1&
0%
1h
03
b0 i
1*
#1280000
0*
#1281332
0)
#1285000
b1 i
1*
#1289145
1k
b1 %"
1)
#1290000
0*
#1295000
0&
1%
0h
b10 i
1*
#1296958
0)
#1300000
0*
#1304771
b10010 (
1,
1!
0k
b10 %"
1)
#1305000
13
b11 i
1*
#1310000
0*
#1312584
0)
#1315000
1&
0%
1h
03
b0 i
1*
#1320000
0*
#1320397
1l
b11 %"
1)
#1325000
b1 i
1*
#1328210
0)
#1330000
0*
#1335000
0&
1%
0h
b10 i
1*
#1336023
0!
0l
b0 %"
b10010 z
b100100011010001 &"
1)
#1340000
0*
#1343836
0)
#1345000
13
b11 i
1*
#1350000
0*
#1351649
1k
b1 %"
1)
#1355000
1&
0%
1h
03
b0 i
1*
#1359462
0)
#1360000
0*
#1365000
b1 i
1*
#1367275
b10011 (
0,
1!
0k
b10 %"
1)
#1370000
0*
#1375000
0&
1%
0h
b10 i
1*
#1375088
0)
#1380000
0*
#1382901
1l
b11 %"
1)
#1385000
13
b11 i
1*
#1390000
0*
#1390714
0)
#1395000
1&
0%
1h
03
b0 i
1*
#1398527
0!
0l
b0 %"
b10011 z
b1001000110100010 &"
1)
#1400000
0*
#1405000
b1 i
1*
#1406340
0)
#1410000
0*
#1414153
1k
b1 %"
1)
#1415000
0&
1%
0h
b10 i
1*
#1420000
0*
#1421966
0)
#1425000
13
b11 i
1*
#1429779
b10100 (
1,
1!
0k
b10 %"
1)
#1430000
0*
#1435000
1&
0%
1h
03
b0 i
1*
#1437592
0)
#1440000
0*
#1445000
b1 i
1*
#1445405
1l
b11 %"
1)
#1450000
0*
#1453218
0)
#1455000
0&
1%
0h
b10 i
1*
#1460000
0*
#1461031
0!
0l
b0 %"
b10100 z
b10010001101000101 &"
1)
#1465000
13
b11 i
1*
#1468844
0)
#1470000
0*
#1475000
1&
0%
1h
03
b0 i
1*
#1476657
1k
b1 %"
1)
#1480000
0*
#1484470
0)
#1485000
b1 i
1*
#1490000
0*
#1492283
b10101 (
0,
1!
0k
b10 %"
1)
#1495000
0&
1%
0h
b10 i
1*
#1500000
0*
#1500096
0)
#1505000
13
b11 i
1*
#1507909
1l
b11 %"
1)
#1510000
0*
#1515000
1&
0%
1h
03
b0 i
1*
#1515722
0)
#1520000
0*
#1523535
0!
0l
b0 %"
b10101 z
b100100011010001010 &"
1)
#1525000
b1 i
1*
#1530000
0*
#1531348
0)
#1535000
0&
1%
0h
b10 i
1*
#1539161
1k
b1 %"
1)
#1540000
0*
#1545000
13
b11 i
1*
#1546974
0)
#1550000
0*
#1554787
b10110 (
1,
1!
0k
b10 %"
1)
#1555000
1&
0%
1h
03
b0 i
1*
#1560000
0*
#1562600
0)
#1565000
b1 i
1*
#1570000
0*
#1570413
1l
b11 %"
1)
#1575000
0&
1%
0h
b10 i
1*
#1578226
0)
#1580000
0*
#1585000
13
b11 i
1*
#1586039
0!
0l
b0 %"
b10110 z
b1001000110100010101 &"
1)
#1590000
0*
#1593852
0)
#1595000
1&
0%
1h
03
b0 i
1*
#1600000
0*
#1601665
1k
b1 %"
1)
#1605000
b1 i
1*
#1609478
0)
#1610000
0*
#1615000
0&
1%
0h
b10 i
1*
#1617291
b10111 (
1!
0k
b10 %"
1)
#1620000
0*
#1625000
13
b11 i
1*
#1625104
0)
#1630000
0*
#1632917
1l
b11 %"
1)
#1635000
1&
0%
1h
03
b0 i
1*
#1640000
0*
#1640730
0)
#1645000
b1 i
1*
#1648543
0!
0l
b0 %"
b10111 z
b10010001101000101011 &"
1)
#1650000
0*
#1655000
0&
1%
0h
b10 i
1*
#1656356
0)
#1660000
0*
#1664169
1k
b1 %"
1)
#1665000
13
b11 i
1*
#1670000
0*
#1671982
0)
#1675000
1&
0%
1h
03
b0 i
1*
#1679795
b11000 (
0,
1!
0k
b10 %"
1)
#1680000
0*
#1685000
b1 i
1*
#1687608
0)
#1690000
0*
#1695000
0&
1%
0h
b10 i
1*
#1695421
1l
b11 %"
1)
#1700000
0*
#1703234
0)
#1705000
13
b11 i
1*
#1710000
0*
#1711047
0!
0l
b0 %"
b11000 z
b100100011010001010110 &"
1)
#1715000
1&
0%
1h
03
b0 i
1*
#1718860
0)
#1720000
0*
#1725000
b1 i
1*
#1726673
1k
b1 %"
1)
#1730000
0*
#1734486
0)
#1735000
0&
1%
0h
b10 i
1*
#1740000
0*
#1742299
b11001 (
1!
0k
b10 %"
1)
#1745000
13
b11 i
1*
#1750000
0*
#1750112
0)
#1755000
1&
0%
1h
03
b0 i
1*
#1757925
1l
b11 %"
1)
#1760000
0*
#1765000
b1 i
1*
#1765738
0)
#1770000
0*
#1773551
0!
0l
b0 %"
b11001 z
b1001000110100010101100 &"
1)
#1775000
0&
1%
0h
b10 i
1*
#1780000
0*
#1781364
0)
#1785000
13
b11 i
1*
#1789177
1k
b1 %"
1)
#1790000
0*
#1795000
1&
0%
1h
03
b0 i
1*
#1796990
0)
#1800000
0*
#1804803
b11010 (
1,
1!
0k
b10 %"
1)
#1805000
b1 i
1*
#1810000
0*
#1812616
0)
#1815000
0&
1%
0h
b10 i
1*
#1820000
0*
#1820429
1l
b11 %"
1)
#1825000
13
b11 i
1*
#1828242
0)
#1830000
0*
#1835000
1&
0%
1h
03
b0 i
1*
#1836055
0!
0l
b0 %"
b11010 z
b10010001101000101011001 &"
1)
#1840000
0*
#1843868
0)
#1845000
b1 i
1*
#1850000
0*
#1851681
1k
b1 %"
1)
#1855000
0&
1%
0h
b10 i
1*
#1859494
0)
#1860000
0*
#1865000
13
b11 i
1*
#1867307
b11011 (
1!
0k
b10 %"
1)
#1870000
0*
#1875000
1&
0%
1h
03
b0 i
1*
#1875120
0)
#1880000
0*
#1882933
1l
b11 %"
1)
#1885000
b1 i
1*
#1890000
0*
#1890746
0)
#1895000
0&
1%
0h
b10 i
1*
#1898559
0!
0l
b0 %"
b11011 z
b100100011010001010110011 &"
1)
#1900000
0*
#1905000
13
b11 i
1*
#1906372
0)
#1910000
0*
#1914185
1k
b1 %"
1)
#1915000
1&
0%
1h
03
b0 i
1*
#1920000
0*
#1921998
0)
#1925000
b1 i
1*
#1929811
b11100 (
1!
0k
b10 %"
1)
#1930000
0*
#1935000
0&
1%
0h
b10 i
1*
#1937624
0)
#1940000
0*
#1945000
13
b11 i
1*
#1945437
1l
b11 %"
1)
#1950000
0*
#1953250
0)
#1955000
1&
0%
1h
03
b0 i
1*
#1960000
0*
#1961063
0!
0l
b0 %"
b11100 z
b1001000110100010101100111 &"
1)
#1965000
b1 i
1*
#1968876
0)
#1970000
0*
#1975000
0&
1%
0h
b10 i
1*
#1976689
1k
b1 %"
1)
#1980000
0*
#1984502
0)
#1985000
13
b11 i
1*
#1990000
0*
#1992315
b11101 (
1!
0k
b10 %"
1)
#1995000
1&
0%
1h
03
b0 i
1*
#2000000
0*
#2000128
0)
#2005000
b1 i
1*
#2007941
1l
b11 %"
1)
#2010000
0*
#2015000
0&
1%
0h
b10 i
1*
#2015754
0)
#2020000
0*
#2023567
0!
0l
b0 %"
b11101 z
b10010001101000101011001111 &"
1)
#2025000
13
b11 i
1*
#2030000
0*
#2031380
0)
#2035000
1&
0%
1h
03
b0 i
1*
#2039193
1k
b1 %"
1)
#2040000
0*
#2045000
b1 i
1*
#2047006
0)
#2050000
0*
#2054819
b11110 (
0,
1!
0k
b10 %"
1)
#2055000
0&
1%
0h
b10 i
1*
#2060000
0*
#2062632
0)
#2065000
13
b11 i
1*
#2070000
0*
#2070445
1l
b11 %"
1)
#2075000
1&
0%
1h
03
b0 i
1*
#2078258
0)
#2080000
0*
#2085000
b1 i
1*
#2086071
0!
0l
b0 %"
b11110 z
b100100011010001010110011110 &"
1)
#2090000
0*
#2093884
0)
#2095000
0&
1%
0h
b10 i
1*
#2100000
0*
#2101697
1k
b1 %"
1)
#2105000
13
b11 i
1*
#2109510
0)
#2110000
0*
#2115000
1&
0%
1h
03
b0 i
1*
#2117323
b11111 (
1!
0k
b10 %"
1)
#2120000
0*
#2125000
b1 i
1*
#2125136
0)
#2130000
0*
#2132949
1l
b11 %"
1)
#2135000
0&
1%
0h
b10 i
1*
#2140000
0*
#2140762
0)
#2145000
13
b11 i
1*
#2148575
0!
0l
b0 %"
b11111 z
b1001000110100010101100111100 &"
1)
#2150000
0*
#2155000
1&
0%
1h
03
b0 i
1*
#2156388
0)
#2160000
0*
#2164201
1k
b1 %"
1)
#2165000
b1 i
1*
#2170000
0*
#2172014
0)
#2175000
0&
1%
0h
b10 i
1*
#2179827
b100000 (
1!
0k
b10 %"
1)
#2180000
0*
#2185000
13
b11 i
1*
#2187640
0)
#2190000
0*
#2195000
1&
0%
1h
03
b0 i
1*
#2195453
1l
b11 %"
1)
#2200000
0*
#2203266
0)
#2205000
b1 i
1*
#2210000
0*
#2211079
0!
0l
b0 %"
b11 ("
b1 #"
b10010001101000101011001111000 }
b10010001101000101011001111000 &"
1)
#2215000
0&
1%
0h
b10 i
1*
#2218892
0)
#2220000
0*
#2225000
13
b11 i
1*
#2226705
b10010001101000101011001111000 1
b10010001101000101011001111000 <
b10010001101000101011001111000 U
b10010001101000101011001111000 |
b1 $"
1'
1k
b1 %"
1)
#2230000
0*
#2234518
0)
#2235000
1&
0%
1h
03
b0 i
1*
#2240000
0*
#2242331
b0 (
1!
0k
b10 %"
b10 $"
1)
#2245000
b1 i
1*
#2250000
0*
#2250144
0)
#2255000
0&
1%
0h
b10 i
1*
#2257957
b11 $"
1l
b11 %"
1)
#2260000
0*
#2265000
13
b11 i
1*
#2265770
0)
#2270000
0*
#2273583
0!
0l
b0 %"
b100 $"
1)
#2275000
1&
0%
1h
03
b0 i
1*
#2280000
0*
#2281396
0)
#2285000
b1 i
1*
#2289209
b101 $"
1k
b1 %"
1)
#2290000
0*
#2295000
0&
1%
0h
b10 i
1*
#2297022
0)
#2300000
0*
#2304835
1!
0k
b10 %"
b110 $"
1)
#2305000
13
b11 i
1*
#2310000
0*
#2312648
0)
#2315000
1&
0%
1h
03
b0 i
1*
#2320000
0*
#2320461
b111 $"
1l
b11 %"
1)
#2325000
b1 i
1*
#2328274
0)
#2330000
0*
#2335000
0&
1%
0h
b10 i
1*
#2336087
0!
0l
b0 %"
b1000 $"
1)
#2340000
0*
#2343900
0)
#2345000
13
b11 i
1*
#2350000
0*
#2351713
b1001 $"
1k
b1 %"
1)
#2355000
1&
0%
1h
03
b0 i
1*
#2359526
0)
#2360000
0*
#2365000
b1 i
1*
#2367339
1!
0k
b10 %"
b1010 $"
1)
#2370000
0*
#2375000
0&
1%
0h
b10 i
1*
#2375152
0)
#2380000
0*
#2382965
b1011 $"
1l
b11 %"
1)
#2385000
13
b11 i
1*
#2390000
0*
#2390778
0)
#2395000
1&
0%
1h
03
b0 i
1*
#2398591
0!
0l
b0 %"
b1100 $"
1)
#2400000
0*
#2405000
b1 i
1*
#2406404
0)
#2410000
0*
#2414217
b1101 $"
1k
b1 %"
1)
#2415000
0&
1%
0h
b10 i
1*
#2420000
0*
#2422030
0)
#2425000
13
b11 i
1*
#2429843
1!
0k
b10 %"
b1110 $"
1)
#2430000
0*
#2435000
1&
0%
1h
03
b0 i
1*
#2437656
0)
#2440000
0*
#2445000
b1 i
1*
#2445469
b1111 $"
1l
b11 %"
1)
#2450000
0*
#2453282
0)
#2455000
0&
1%
0h
b10 i
1*
#2460000
0*
#2461095
0!
0l
b0 %"
b1 ("
b10000000010000000000000000 m
b1 {
b0 $"
1)
#2465000
13
b11 i
1*
#2468908
0)
#2470000
0*
#2475000
1&
0%
1h
03
b0 i
1*
#2476721
b1 (
b10 ("
b0 z
b10000000010000000000000000 '"
0'
1k
b1 %"
1)
#2480000
0*
#2484534
0)
#2485000
b1 i
1*
#2490000
0*
#2492347
b10 (
1!
0k
b10 %"
b100000000100000000000000000 '"
1)
#2495000
0&
1%
0h
b10 i
1*
#2500000
0*
#2500160
0)
#2505000
13
b11 i
1*
#2507973
1l
b11 %"
1)
#2510000
0*
#2515000
1&
0%
1h
03
b0 i
1*
#2515786
0)
#2520000
0*
#2523599
0!
0l
b0 %"
b1 z
b100100011010001010110011110000 &"
1)
