testbench/tb_spi_coax_system_fast.vcd
$date
	Thu Nov 20 16:50:55 2025
$end
$version
	Icarus Verilog
$end
$timescale
	1ps
$end
$scope module tb_spi_coax_system $end
$var wire 8 ! tx_frame_cnt [7:0] $end
$var wire 1 " sync_lost $end
$var wire 1 # sclk $end
$var wire 1 $ rx_valid $end
$var wire 32 % rx_data [31:0] $end
$var wire 1 & mosi $end
$var wire 1 ' link_active $end
$var wire 1 ( frame_error $end
$var wire 1 ) cs_n $end
$var wire 1 * cdr_locked $end
$var reg 6 + bit_cnt [5:0] $end
$var reg 1 , clk_link $end
$var reg 1 - clk_spi $end
$var reg 1 . clk_sys $end
$var reg 1 / enable $end
$var reg 1 0 miso $end
$var reg 1 1 rst_n $end
$var reg 32 2 sensor_data [31:0] $end
$var integer 32 3 rx_count [31:0] $end
$upscope $end
$enddefinitions $end
$comment Show the parameter values. $end
$dumpall
$end
#0
$dumpvars
b0 3
b0 2
01
00
0/
0.
0-
0,
b0 +
x*
1)
0(
0'
0&
b0 %
0$
0#
0"
b0 !
$end
#2500
0*
1,
#5000
0,
1.
#7500
1,
#7813
1-
#10000
0,
0.
#12500
1,
#15000
0,
1.
#15626
0-
#17500
1,
#20000
0,
0.
#22500
1,
#23439
1-
#25000
0,
1.
#27500
1,
#30000
0,
0.
#31252
0-
#32500
1,
#35000
0,
1.
#37500
1,
#39065
1-
#40000
0,
0.
#42500
1,
#45000
0,
1.
#46878
0-
#47500
1,
#50000
0,
0.
#52500
1,
#54691
1-
#55000
0,
1.
#57500
1,
#60000
0,
0.
#62500
1,
#62504
0-
#65000
0,
1.
#67500
1,
#70000
0,
0.
#70317
1-
#72500
1,
#75000
0,
1.
#77500
1,
#78130
0-
#80000
0,
0.
#82500
1,
#85000
0,
1.
#85943
1-
#87500
1,
#90000
0,
0.
#92500
1,
#93756
0-
#95000
0,
1.
#97500
1,
#100000
0,
0.
11
#101569
1-
#102500
1,
#105000
0,
1.
#107500
1,
#109382
0-
#110000
0,
0.
#112500
1,
#115000
0,
1.
#117195
1#
1-
#117500
1,
#120000
0,
0.
#122500
1,
#125000
0,
1.
#125008
0-
#127500
1,
#130000
0,
0.
#132500
1,
#132821
1-
#135000
0,
1.
#137500
1,
#140000
0,
0.
#140634
0-
#142500
1,
#145000
0,
1.
#147500
1,
#148447
0#
1-
#150000
0,
0.
#152500
1,
#155000
0,
1.
#156260
0-
#157500
1,
#160000
0,
0.
#162500
1,
#164073
1-
#165000
0,
1.
#167500
1,
#170000
0,
0.
#171886
0-
#172500
1,
#175000
0,
1.
#177500
1,
#179699
1#
1-
#180000
0,
0.
#182500
1,
#185000
0,
1.
#187500
1,
#187512
0-
#190000
0,
0.
#192500
1,
#195000
0,
1.
#195325
1-
#197500
1,
#200000
0,
0.
1'
1/
#202500
1,
#203138
0-
#205000
0,
1.
#207500
1,
#210000
0,
0.
#210951
0#
1-
#212500
1,
#215000
0,
1.
#217500
1,
#218764
0-
#220000
0,
0.
#222500
1,
#225000
0,
1.
#226577
1-
#227500
1,
#230000
0,
0.
#232500
1,
#234390
0-
#235000
0,
1.
#237500
1,
#240000
0,
0.
#242203
1#
1-
#242500
1,
#245000
0,
1.
#247500
1,
#250000
0,
0.
#250016
0-
#252500
1,
#255000
0,
1.
#257500
1,
#257829
b1 2
b0 +
0)
1-
#260000
0,
0.
#262500
1,
#265000
0,
1.
#265642
0-
#267500
1,
#270000
0,
0.
#272500
1,
#273455
0#
1-
#275000
0,
1.
#277500
1,
#280000
0,
0.
#281268
0-
#282500
1,
#285000
0,
1.
#287500
1,
#289081
1-
#290000
0,
0.
#292500
1,
#295000
0,
1.
#296894
0-
#297500
1,
#300000
0,
0.
#302500
1,
#304707
b1 +
1#
1-
#305000
0,
1.
#307500
1,
#310000
0,
0.
#312500
1,
#312520
0-
#315000
0,
1.
#317500
1,
#320000
0,
0.
#320333
1-
#322500
1,
#325000
0,
1.
#327500
1,
#328146
0-
#330000
0,
0.
#332500
1,
#335000
0,
1.
#335959
0#
1-
#337500
1,
#340000
0,
0.
#342500
1,
#343772
0-
#345000
0,
1.
#347500
1,
#350000
0,
0.
#351585
1-
#352500
1,
#355000
0,
1.
#357500
1,
#359398
0-
#360000
0,
0.
#362500
1,
#365000
0,
1.
#367211
b10 +
1#
1-
#367500
1,
#370000
0,
0.
#372500
1,
#375000
0,
1.
#375024
0-
#377500
1,
#380000
0,
0.
#382500
1,
#382837
1-
#385000
0,
1.
#387500
1,
#390000
0,
0.
#390650
0-
#392500
1,
#395000
0,
1.
#397500
1,
#398463
0#
1-
#400000
0,
0.
#402500
1,
#405000
0,
1.
#406276
0-
#407500
1,
#410000
0,
0.
#412500
1,
#414089
1-
#415000
0,
1.
#417500
1,
#420000
0,
0.
#421902
0-
#422500
1,
#425000
0,
1.
#427500
1,
#429715
b11 +
1#
1-
#430000
0,
0.
#432500
1,
#435000
0,
1.
#437500
1,
#437528
0-
#440000
0,
0.
#442500
1,
#445000
0,
1.
#445341
1-
#447500
1,
#450000
0,
0.
#452500
1,
#453154
0-
#455000
0,
1.
#457500
1,
#460000
0,
0.
#460967
0#
1-
#462500
1,
#465000
0,
1.
#467500
1,
#468780
0-
#470000
0,
0.
#472500
1,
#475000
0,
1.
#476593
1-
#477500
1,
#480000
0,
0.
#482500
1,
#484406
0-
#485000
0,
1.
#487500
1,
#490000
0,
0.
#492219
b100 +
1#
1-
#492500
1,
#495000
0,
1.
#497500
1,
#500000
0,
0.
#500032
0-
#502500
1,
#505000
0,
1.
#507500
1,
#507845
1-
#510000
0,
0.
#512500
1,
#515000
0,
1.
#515658
0-
#517500
1,
#520000
0,
0.
#522500
1,
#523471
0#
1-
#525000
0,
1.
#527500
1,
#530000
0,
0.
#531284
0-
#532500
1,
#535000
0,
1.
#537500
1,
#539097
1-
#540000
0,
0.
#542500
1,
#545000
0,
1.
#546910
0-
#547500
1,
#550000
0,
0.
#552500
1,
#554723
b101 +
1#
1-
#555000
0,
1.
#557500
1,
#560000
0,
0.
#562500
1,
#562536
0-
#565000
0,
1.
#567500
1,
#570000
0,
0.
#570349
1-
#572500
1,
#575000
0,
1.
#577500
1,
#578162
0-
#580000
0,
0.
#582500
1,
#585000
0,
1.
#585975
0#
1-
#587500
1,
#590000
0,
0.
#592500
1,
#593788
0-
#595000
0,
1.
#597500
1,
#600000
0,
0.
#601601
1-
#602500
1,
#605000
0,
1.
#607500
1,
#609414
0-
#610000
0,
0.
#612500
1,
#615000
0,
1.
#617227
b110 +
1#
1-
#617500
1,
#620000
0,
0.
#622500
1,
#625000
0,
1.
#625040
0-
#627500
1,
#630000
0,
0.
#632500
1,
#632853
1-
#635000
0,
1.
#637500
1,
#640000
0,
0.
#640666
0-
#642500
1,
#645000
0,
1.
#647500
1,
#648479
0#
1-
#650000
0,
0.
#652500
1,
#655000
0,
1.
#656292
0-
#657500
1,
#660000
0,
0.
#662500
1,
#664105
1-
#665000
0,
1.
#667500
1,
#670000
0,
0.
#671918
0-
#672500
1,
#675000
0,
1.
#677500
1,
#679731
b111 +
1#
1&
1-
#680000
0,
0.
#682500
1,
#685000
0,
1.
#687500
1,
#687544
0-
#690000
0,
0.
#692500
1,
#695000
0,
1.
#695357
1-
#697500
1,
#700000
0,
0.
#702500
1,
#703170
0-
#705000
0,
1.
#707500
1,
#710000
0,
0.
#710983
0#
1-
#712500
1,
#715000
0,
1.
#717500
1,
#718796
0-
#720000
0,
0.
#722500
1,
#725000
0,
1.
#726609
1-
#727500
1,
#730000
0,
0.
#732500
1,
#734422
0-
#735000
0,
1.
#737500
1,
#740000
0,
0.
#742235
b1000 +
1#
0&
1-
#742500
1,
#745000
0,
1.
#747500
1,
#750000
0,
0.
#750048
0-
#752500
1,
#755000
0,
1.
#757500
1,
#757861
1-
#760000
0,
0.
#762500
1,
#765000
0,
1.
#765674
0-
#767500
1,
#770000
0,
0.
#772500
1,
#773487
0#
1-
#775000
0,
1.
#777500
1,
#780000
0,
0.
#781300
0-
#782500
1,
#785000
0,
1.
#787500
1,
#789113
1-
#790000
0,
0.
#792500
1,
#795000
0,
1.
#796926
0-
#797500
1,
#800000
0,
0.
#802500
1,
#804739
b1001 +
1#
1-
#805000
0,
1.
#807500
1,
#810000
0,
0.
#812500
1,
#812552
0-
#815000
0,
1.
#817500
1,
#820000
0,
0.
#820365
1-
#822500
1,
#825000
0,
1.
#827500
1,
#828178
0-
#830000
0,
0.
#832500
1,
#835000
0,
1.
#835991
0#
1-
#837500
1,
#840000
0,
0.
#842500
1,
#843804
0-
#845000
0,
1.
#847500
1,
#850000
0,
0.
#851617
1-
#852500
1,
#855000
0,
1.
#857500
1,
#859430
0-
#860000
0,
0.
#862500
1,
#865000
0,
1.
#867243
b1010 +
1#
1-
#867500
1,
#870000
0,
0.
#872500
1,
#875000
0,
1.
#875056
0-
#877500
1,
#880000
0,
0.
#882500
1,
#882869
1-
#885000
0,
1.
#887500
1,
#890000
0,
0.
#890682
0-
#892500
1,
#895000
0,
1.
#897500
1,
#898495
0#
1-
#900000
0,
0.
#902500
1,
#905000
0,
1.
#906308
0-
#907500
1,
#910000
0,
0.
#912500
1,
#914121
1-
#915000
0,
1.
#917500
1,
#920000
0,
0.
#921934
0-
#922500
1,
#925000
0,
1.
#927500
1,
#929747
b1011 +
1#
1-
#930000
0,
0.
#932500
1,
#935000
0,
1.
#937500
1,
#937560
0-
#940000
0,
0.
#942500
1,
#945000
0,
1.
#945373
1-
#947500
1,
#950000
0,
0.
#952500
1,
#953186
0-
#955000
0,
1.
#957500
1,
#960000
0,
0.
#960999
0#
1-
#962500
1,
#965000
0,
1.
#967500
1,
#968812
0-
#970000
0,
0.
#972500
1,
#975000
0,
1.
#976625
1-
#977500
1,
#980000
0,
0.
#982500
1,
#984438
0-
#985000
0,
1.
#987500
1,
#990000
0,
0.
#992251
b1100 +
1#
1-
#992500
1,
#995000
0,
1.
#997500
1,
#1000000
0,
0.
#1000064
0-
#1002500
1,
#1005000
0,
1.
#1007500
1,
#1007877
1-
#1010000
0,
0.
#1012500
1,
#1015000
0,
1.
#1015690
0-
#1017500
1,
#1020000
0,
0.
#1022500
1,
#1023503
0#
1-
#1025000
0,
1.
#1027500
1,
#1030000
0,
0.
#1031316
0-
#1032500
1,
#1035000
0,
1.
#1037500
1,
#1039129
1-
#1040000
0,
0.
#1042500
1,
#1045000
0,
1.
#1046942
0-
#1047500
1,
#1050000
0,
0.
#1052500
1,
#1054755
b1101 +
1#
1-
#1055000
0,
1.
#1057500
1,
#1060000
0,
0.
#1062500
1,
#1062568
0-
#1065000
0,
1.
#1067500
1,
#1070000
0,
0.
#1070381
1-
#1072500
1,
#1075000
0,
1.
#1077500
1,
#1078194
0-
#1080000
0,
0.
#1082500
1,
#1085000
0,
1.
#1086007
0#
1-
#1087500
1,
#1090000
0,
0.
#1092500
1,
#1093820
0-
#1095000
0,
1.
#1097500
1,
#1100000
0,
0.
#1101633
1-
#1102500
1,
#1105000
0,
1.
#1107500
1,
#1109446
0-
#1110000
0,
0.
#1112500
1,
#1115000
0,
1.
#1117259
b1110 +
1#
1-
#1117500
1,
#1120000
0,
0.
#1122500
1,
#1125000
0,
1.
#1125072
0-
#1127500
1,
#1130000
0,
0.
#1132500
1,
#1132885
1-
#1135000
0,
1.
#1137500
1,
#1140000
0,
0.
#1140698
0-
#1142500
1,
#1145000
0,
1.
#1147500
1,
#1148511
0#
1-
#1150000
0,
0.
#1152500
1,
#1155000
0,
1.
#1156324
0-
#1157500
1,
#1160000
0,
0.
#1162500
1,
#1164137
1-
#1165000
0,
1.
#1167500
1,
#1170000
0,
0.
#1171950
0-
#1172500
1,
#1175000
0,
1.
#1177500
1,
#1179763
b1111 +
1#
1-
#1180000
0,
0.
#1182500
1,
#1185000
0,
1.
#1187500
1,
#1187576
0-
#1190000
0,
0.
#1192500
1,
#1195000
0,
1.
#1195389
1-
#1197500
1,
#1200000
0,
0.
#1202500
1,
#1203202
0-
#1205000
0,
1.
#1207500
1,
#1210000
0,
0.
#1211015
0#
1-
#1212500
1,
#1215000
0,
1.
#1217500
1,
#1218828
0-
#1220000
0,
0.
#1222500
1,
#1225000
0,
1.
#1226641
1-
#1227500
1,
#1230000
0,
0.
#1232500
1,
#1234454
0-
#1235000
0,
1.
#1237500
1,
#1240000
0,
0.
#1242267
b10000 +
1#
1-
#1242500
1,
#1245000
0,
1.
#1247500
1,
#1250000
0,
0.
#1250080
0-
#1252500
1,
#1255000
0,
1.
#1257500
1,
#1257893
1-
#1260000
0,
0.
#1262500
1,
#1265000
0,
1.
#1265706
0-
#1267500
1,
#1270000
0,
0.
#1272500
1,
#1273519
0#
1-
#1275000
0,
1.
#1277500
1,
#1280000
0,
0.
#1281332
0-
#1282500
1,
#1285000
0,
1.
#1287500
1,
#1289145
1-
#1290000
0,
0.
#1292500
1,
#1295000
0,
1.
#1296958
0-
#1297500
1,
#1300000
0,
0.
#1302500
1,
#1304771
b10001 +
1#
1-
#1305000
0,
1.
#1307500
1,
#1310000
0,
0.
#1312500
1,
#1312584
0-
#1315000
0,
1.
#1317500
1,
#1320000
0,
0.
#1320397
1-
#1322500
1,
#1325000
0,
1.
#1327500
1,
#1328210
0-
#1330000
0,
0.
#1332500
1,
#1335000
0,
1.
#1336023
0#
1-
#1337500
1,
#1340000
0,
0.
#1342500
1,
#1343836
0-
#1345000
0,
1.
#1347500
1,
#1350000
0,
0.
#1351649
1-
#1352500
1,
#1355000
0,
1.
#1357500
1,
#1359462
0-
#1360000
0,
0.
#1362500
1,
#1365000
0,
1.
#1367275
b10010 +
1#
1-
#1367500
1,
#1370000
0,
0.
#1372500
1,
#1375000
0,
1.
#1375088
0-
#1377500
1,
#1380000
0,
0.
#1382500
1,
#1382901
1-
#1385000
0,
1.
#1387500
1,
#1390000
0,
0.
#1390714
0-
#1392500
1,
#1395000
0,
1.
#1397500
1,
#1398527
0#
1-
#1400000
0,
0.
#1402500
1,
#1405000
0,
1.
#1406340
0-
#1407500
1,
#1410000
0,
0.
#1412500
1,
#1414153
1-
#1415000
0,
1.
#1417500
1,
#1420000
0,
0.
#1421966
0-
#1422500
1,
#1425000
0,
1.
#1427500
1,
#1429779
b10011 +
1#
1-
#1430000
0,
0.
#1432500
1,
#1435000
0,
1.
#1437500
1,
#1437592
0-
#1440000
0,
0.
#1442500
1,
#1445000
0,
1.
#1445405
1-
#1447500
1,
#1450000
0,
0.
#1452500
1,
#1453218
0-
#1455000
0,
1.
#1457500
1,
#1460000
0,
0.
#1461031
0#
1-
#1462500
1,
#1465000
0,
1.
#1467500
1,
#1468844
0-
#1470000
0,
0.
#1472500
1,
#1475000
0,
1.
#1476657
1-
#1477500
1,
#1480000
0,
0.
#1482500
1,
#1484470
0-
#1485000
0,
1.
#1487500
1,
#1490000
0,
0.
#1492283
b10100 +
1#
1-
#1492500
1,
#1495000
0,
1.
#1497500
1,
#1500000
0,
0.
#1500096
0-
#1502500
1,
#1505000
0,
1.
#1507500
1,
#1507909
1-
#1510000
0,
0.
#1512500
1,
#1515000
0,
1.
#1515722
0-
#1517500
1,
#1520000
0,
0.
#1522500
1,
#1523535
0#
1-
#1525000
0,
1.
#1527500
1,
#1530000
0,
0.
#1531348
0-
#1532500
1,
#1535000
0,
1.
#1537500
1,
#1539161
1-
#1540000
0,
0.
#1542500
1,
#1545000
0,
1.
#1546974
0-
#1547500
1,
#1550000
0,
0.
#1552500
1,
#1554787
b10101 +
1#
1-
#1555000
0,
1.
#1557500
1,
#1560000
0,
0.
#1562500
1,
#1562600
0-
#1565000
0,
1.
#1567500
1,
#1570000
0,
0.
#1570413
1-
#1572500
1,
#1575000
0,
1.
#1577500
1,
#1578226
0-
#1580000
0,
0.
#1582500
1,
#1585000
0,
1.
#1586039
0#
1-
#1587500
1,
#1590000
0,
0.
#1592500
1,
#1593852
0-
#1595000
0,
1.
#1597500
1,
#1600000
0,
0.
#1601665
1-
#1602500
1,
#1605000
0,
1.
#1607500
1,
#1609478
0-
#1610000
0,
0.
#1612500
1,
#1615000
0,
1.
#1617291
b10110 +
1#
1-
#1617500
1,
#1620000
0,
0.
#1622500
1,
#1625000
0,
1.
#1625104
0-
#1627500
1,
#1630000
0,
0.
#1632500
1,
#1632917
1-
#1635000
0,
1.
#1637500
1,
#1640000
0,
0.
#1640730
0-
#1642500
1,
#1645000
0,
1.
#1647500
1,
#1648543
0#
1-
#1650000
0,
0.
#1652500
1,
#1655000
0,
1.
#1656356
0-
#1657500
1,
#1660000
0,
0.
#1662500
1,
#1664169
1-
#1665000
0,
1.
#1667500
1,
#1670000
0,
0.
#1671982
0-
#1672500
1,
#1675000
0,
1.
#1677500
1,
#1679795
b10111 +
1#
1-
#1680000
0,
0.
#1682500
1,
#1685000
0,
1.
#1687500
1,
#1687608
0-
#1690000
0,
0.
#1692500
1,
#1695000
0,
1.
#1695421
1-
#1697500
1,
#1700000
0,
0.
#1702500
1,
#1703234
0-
#1705000
0,
1.
#1707500
1,
#1710000
0,
0.
#1711047
0#
1-
#1712500
1,
#1715000
0,
1.
#1717500
1,
#1718860
0-
#1720000
0,
0.
#1722500
1,
#1725000
0,
1.
#1726673
1-
#1727500
1,
#1730000
0,
0.
#1732500
1,
#1734486
0-
#1735000
0,
1.
#1737500
1,
#1740000
0,
0.
#1742299
b11000 +
1#
1-
#1742500
1,
#1745000
0,
1.
#1747500
1,
#1750000
0,
0.
#1750112
0-
#1752500
1,
#1755000
0,
1.
#1757500
1,
#1757925
1-
#1760000
0,
0.
#1762500
1,
#1765000
0,
1.
#1765738
0-
#1767500
1,
#1770000
0,
0.
#1772500
1,
#1773551
0#
1-
#1775000
0,
1.
#1777500
1,
#1780000
0,
0.
#1781364
0-
#1782500
1,
#1785000
0,
1.
#1787500
1,
#1789177
1-
#1790000
0,
0.
#1792500
1,
#1795000
0,
1.
#1796990
0-
#1797500
1,
#1800000
0,
0.
#1802500
1,
#1804803
b11001 +
1#
1-
#1805000
0,
1.
#1807500
1,
#1810000
0,
0.
#1812500
1,
#1812616
0-
#1815000
0,
1.
#1817500
1,
#1820000
0,
0.
#1820429
1-
#1822500
1,
#1825000
0,
1.
#1827500
1,
#1828242
0-
#1830000
0,
0.
#1832500
1,
#1835000
0,
1.
#1836055
0#
1-
#1837500
1,
#1840000
0,
0.
#1842500
1,
#1843868
0-
#1845000
0,
1.
#1847500
1,
#1850000
0,
0.
#1851681
1-
#1852500
1,
#1855000
0,
1.
#1857500
1,
#1859494
0-
#1860000
0,
0.
#1862500
1,
#1865000
0,
1.
#1867307
b11010 +
1#
1-
#1867500
1,
#1870000
0,
0.
#1872500
1,
#1875000
0,
1.
#1875120
0-
#1877500
1,
#1880000
0,
0.
#1882500
1,
#1882933
1-
#1885000
0,
1.
#1887500
1,
#1890000
0,
0.
#1890746
0-
#1892500
1,
#1895000
0,
1.
#1897500
1,
#1898559
0#
1-
#1900000
0,
0.
#1902500
1,
#1905000
0,
1.
#1906372
0-
#1907500
1,
#1910000
0,
0.
#1912500
1,
#1914185
1-
#1915000
0,
1.
#1917500
1,
#1920000
0,
0.
#1921998
0-
#1922500
1,
#1925000
0,
1.
#1927500
1,
#1929811
b11011 +
1#
1-
#1930000
0,
0.
#1932500
1,
#1935000
0,
1.
#1937500
1,
#1937624
0-
#1940000
0,
0.
#1942500
1,
#1945000
0,
1.
#1945437
1-
#1947500
1,
#1950000
0,
0.
#1952500
1,
#1953250
0-
#1955000
0,
1.
#1957500
1,
#1960000
0,
0.
#1961063
0#
1-
#1962500
1,
#1965000
0,
1.
#1967500
1,
#1968876
0-
#1970000
0,
0.
#1972500
1,
#1975000
0,
1.
#1976689
1-
#1977500
1,
#1980000
0,
0.
#1982500
1,
#1984502
0-
#1985000
0,
1.
#1987500
1,
#1990000
0,
0.
#1992315
b11100 +
1#
1-
#1992500
1,
#1995000
0,
1.
#1997500
1,
#2000000
0,
0.
#2000128
0-
#2002500
1,
#2005000
0,
1.
#2007500
1,
#2007941
1-
#2010000
0,
0.
#2012500
1,
#2015000
0,
1.
#2015754
0-
#2017500
1,
#2020000
0,
0.
#2022500
1,
#2023567
0#
1-
#2025000
0,
1.
#2027500
1,
#2030000
0,
0.
#2031380
0-
#2032500
1,
#2035000
0,
1.
#2037500
1,
#2039193
1-
#2040000
0,
0.
#2042500
1,
#2045000
0,
1.
#2047006
0-
#2047500
1,
#2050000
0,
0.
#2052500
1,
#2054819
b11101 +
1#
1-
#2055000
0,
1.
#2057500
1,
#2060000
0,
0.
#2062500
1,
#2062632
0-
#2065000
0,
1.
#2067500
1,
#2070000
0,
0.
#2070445
1-
#2072500
1,
#2075000
0,
1.
#2077500
1,
#2078258
0-
#2080000
0,
0.
#2082500
1,
#2085000
0,
1.
#2086071
0#
1-
#2087500
1,
#2090000
0,
0.
#2092500
1,
#2093884
0-
#2095000
0,
1.
#2097500
1,
#2100000
0,
0.
#2101697
1-
#2102500
1,
#2105000
0,
1.
#2107500
1,
#2109510
0-
#2110000
0,
0.
#2112500
1,
#2115000
0,
1.
#2117323
b11110 +
1#
1-
#2117500
1,
#2120000
0,
0.
#2122500
1,
#2125000
0,
1.
#2125136
0-
#2127500
1,
#2130000
0,
0.
#2132500
1,
#2132949
1-
#2135000
0,
1.
#2137500
1,
#2140000
0,
0.
#2140762
0-
#2142500
1,
#2145000
0,
1.
#2147500
1,
#2148575
0#
1-
#2150000
0,
0.
#2152500
1,
#2155000
0,
1.
#2156388
0-
#2157500
1,
#2160000
0,
0.
#2162500
1,
#2164201
1-
#2165000
0,
1.
#2167500
1,
#2170000
0,
0.
#2172014
0-
#2172500
1,
#2175000
0,
1.
#2177500
1,
#2179827
b11111 +
1#
1-
#2180000
0,
0.
#2182500
1,
#2185000
0,
1.
#2187500
1,
#2187640
0-
#2190000
0,
0.
#2192500
1,
#2195000
0,
1.
#2195453
1-
#2197500
1,
#2200000
0,
0.
#2202500
1,
#2203266
0-
#2205000
0,
1.
#2207500
1,
#2210000
0,
0.
#2211079
0#
1-
#2212500
1,
#2215000
0,
1.
#2217500
1,
#2218892
0-
#2220000
0,
0.
#2222500
1,
#2225000
0,
1.
#2226705
1)
1-
